[
    {
        "pk": 1, 
        "model": "catalog.category", 
        "fields": {
            "rght": 16, 
            "meta_keywords": "", 
            "uid": "", 
            "image": "", 
            "lft": 1, 
            "top_position": null, 
            "active_formats": false, 
            "static_block": null, 
            "exclude_from_navigation": false, 
            "template": null, 
            "tree_id": 1, 
            "short_description": "", 
            "meta_description": "", 
            "meta_title": "<name>", 
            "show_all_products": true, 
            "description": "", 
            "parent": null, 
            "product_rows": 3, 
            "slug": "apple", 
            "name": "Apple", 
            "level": 0, 
            "products": [], 
            "product_cols": 3, 
            "popular": false, 
            "position": 1000, 
            "display": true, 
            "category_cols": 3
        }
    }, 
    {
        "pk": 2, 
        "model": "catalog.category", 
        "fields": {
            "rght": 3, 
            "meta_keywords": "", 
            "uid": "", 
            "image": "", 
            "lft": 2, 
            "top_position": null, 
            "active_formats": false, 
            "static_block": null, 
            "exclude_from_navigation": false, 
            "template": null, 
            "tree_id": 1, 
            "short_description": "", 
            "meta_description": "", 
            "meta_title": "<name>", 
            "show_all_products": true, 
            "description": "", 
            "parent": 1, 
            "product_rows": 3, 
            "slug": "imac-new", 
            "name": "iMac New", 
            "level": 1, 
            "products": [], 
            "product_cols": 3, 
            "popular": false, 
            "position": 1000, 
            "display": true, 
            "category_cols": 3
        }
    }, 
    {
        "pk": 3, 
        "model": "catalog.category", 
        "fields": {
            "rght": 5, 
            "meta_keywords": "", 
            "uid": "", 
            "image": "", 
            "lft": 4, 
            "top_position": null, 
            "active_formats": false, 
            "static_block": null, 
            "exclude_from_navigation": false, 
            "template": null, 
            "tree_id": 1, 
            "short_description": "", 
            "meta_description": "", 
            "meta_title": "<name>", 
            "show_all_products": true, 
            "description": "", 
            "parent": 1, 
            "product_rows": 3, 
            "slug": "mac-mini", 
            "name": "Mac mini", 
            "level": 1, 
            "products": [], 
            "product_cols": 3, 
            "popular": false, 
            "position": 1000, 
            "display": true, 
            "category_cols": 3
        }
    }, 
    {
        "pk": 4, 
        "model": "catalog.category", 
        "fields": {
            "rght": 7, 
            "meta_keywords": "", 
            "uid": "", 
            "image": "", 
            "lft": 6, 
            "top_position": null, 
            "active_formats": false, 
            "static_block": null, 
            "exclude_from_navigation": false, 
            "template": null, 
            "tree_id": 1, 
            "short_description": "", 
            "meta_description": "", 
            "meta_title": "<name>", 
            "show_all_products": true, 
            "description": "", 
            "parent": 1, 
            "product_rows": 3, 
            "slug": "macbook", 
            "name": "MacBook", 
            "level": 1, 
            "products": [], 
            "product_cols": 3, 
            "popular": false, 
            "position": 1000, 
            "display": true, 
            "category_cols": 3
        }
    }, 
    {
        "pk": 5, 
        "model": "catalog.category", 
        "fields": {
            "rght": 9, 
            "meta_keywords": "", 
            "uid": "", 
            "image": "", 
            "lft": 8, 
            "top_position": null, 
            "active_formats": false, 
            "static_block": null, 
            "exclude_from_navigation": false, 
            "template": null, 
            "tree_id": 1, 
            "short_description": "", 
            "meta_description": "", 
            "meta_title": "<name>", 
            "show_all_products": true, 
            "description": "", 
            "parent": 1, 
            "product_rows": 3, 
            "slug": "macbook-air", 
            "name": "MacBook Air", 
            "level": 1, 
            "products": [], 
            "product_cols": 3, 
            "popular": false, 
            "position": 1000, 
            "display": true, 
            "category_cols": 3
        }
    }, 
    {
        "pk": 6, 
        "model": "catalog.category", 
        "fields": {
            "rght": 11, 
            "meta_keywords": "", 
            "uid": "", 
            "image": "", 
            "lft": 10, 
            "top_position": null, 
            "active_formats": false, 
            "static_block": null, 
            "exclude_from_navigation": false, 
            "template": null, 
            "tree_id": 1, 
            "short_description": "", 
            "meta_description": "", 
            "meta_title": "<name>", 
            "show_all_products": true, 
            "description": "", 
            "parent": 1, 
            "product_rows": 3, 
            "slug": "macbook-pro-new", 
            "name": "MacBook Pro New", 
            "level": 1, 
            "products": [], 
            "product_cols": 3, 
            "popular": false, 
            "position": 1000, 
            "display": true, 
            "category_cols": 3
        }
    }, 
    {
        "pk": 7, 
        "model": "catalog.category", 
        "fields": {
            "rght": 13, 
            "meta_keywords": "", 
            "uid": "", 
            "image": "", 
            "lft": 12, 
            "top_position": null, 
            "active_formats": false, 
            "static_block": null, 
            "exclude_from_navigation": false, 
            "template": null, 
            "tree_id": 1, 
            "short_description": "", 
            "meta_description": "", 
            "meta_title": "<name>", 
            "show_all_products": true, 
            "description": "", 
            "parent": 1, 
            "product_rows": 3, 
            "slug": "mac-pro", 
            "name": "Mac Pro", 
            "level": 1, 
            "products": [], 
            "product_cols": 3, 
            "popular": false, 
            "position": 1000, 
            "display": true, 
            "category_cols": 3
        }
    }, 
    {
        "pk": 8, 
        "model": "catalog.category", 
        "fields": {
            "rght": 15, 
            "meta_keywords": "", 
            "uid": "", 
            "image": "", 
            "lft": 14, 
            "top_position": null, 
            "active_formats": false, 
            "static_block": null, 
            "exclude_from_navigation": false, 
            "template": null, 
            "tree_id": 1, 
            "short_description": "", 
            "meta_description": "", 
            "meta_title": "<name>", 
            "show_all_products": true, 
            "description": "", 
            "parent": 1, 
            "product_rows": 3, 
            "slug": "servery-mac", 
            "name": "\u0421\u0435\u0440\u0432\u0435\u0440\u044b Mac", 
            "level": 1, 
            "products": [], 
            "product_cols": 3, 
            "popular": false, 
            "position": 1000, 
            "display": true, 
            "category_cols": 3
        }
    }, 
    {
        "pk": 9, 
        "model": "catalog.category", 
        "fields": {
            "rght": 12, 
            "meta_keywords": "", 
            "uid": "", 
            "image": "", 
            "lft": 1, 
            "top_position": null, 
            "active_formats": false, 
            "static_block": null, 
            "exclude_from_navigation": false, 
            "template": null, 
            "tree_id": 2, 
            "short_description": "", 
            "meta_description": "", 
            "meta_title": "<name>", 
            "show_all_products": true, 
            "description": "", 
            "parent": null, 
            "product_rows": 3, 
            "slug": "noutbuki", 
            "name": "\u041d\u043e\u0443\u0442\u0431\u0443\u043a\u0438", 
            "level": 0, 
            "products": [], 
            "product_cols": 3, 
            "popular": false, 
            "position": 1000, 
            "display": true, 
            "category_cols": 3
        }
    }, 
    {
        "pk": 12, 
        "model": "catalog.category", 
        "fields": {
            "rght": 3, 
            "meta_keywords": "", 
            "uid": "", 
            "image": "", 
            "lft": 2, 
            "top_position": null, 
            "active_formats": false, 
            "static_block": null, 
            "exclude_from_navigation": false, 
            "template": null, 
            "tree_id": 2, 
            "short_description": "", 
            "meta_description": "", 
            "meta_title": "<name>", 
            "show_all_products": true, 
            "description": "", 
            "parent": 9, 
            "product_rows": 3, 
            "slug": "sony", 
            "name": "Sony", 
            "level": 1, 
            "products": [], 
            "product_cols": 3, 
            "popular": false, 
            "position": 1000, 
            "display": true, 
            "category_cols": 3
        }
    }, 
    {
        "pk": 13, 
        "model": "catalog.category", 
        "fields": {
            "rght": 5, 
            "meta_keywords": "", 
            "uid": "", 
            "image": "", 
            "lft": 4, 
            "top_position": null, 
            "active_formats": false, 
            "static_block": null, 
            "exclude_from_navigation": false, 
            "template": null, 
            "tree_id": 2, 
            "short_description": "", 
            "meta_description": "", 
            "meta_title": "<name>", 
            "show_all_products": true, 
            "description": "", 
            "parent": 9, 
            "product_rows": 3, 
            "slug": "imac", 
            "name": "iMac", 
            "level": 1, 
            "products": [], 
            "product_cols": 3, 
            "popular": false, 
            "position": 1000, 
            "display": true, 
            "category_cols": 3
        }
    }, 
    {
        "pk": 14, 
        "model": "catalog.category", 
        "fields": {
            "rght": 7, 
            "meta_keywords": "", 
            "uid": "", 
            "image": "", 
            "lft": 6, 
            "top_position": null, 
            "active_formats": false, 
            "static_block": null, 
            "exclude_from_navigation": false, 
            "template": null, 
            "tree_id": 2, 
            "short_description": "", 
            "meta_description": "", 
            "meta_title": "<name>", 
            "show_all_products": true, 
            "description": "", 
            "parent": 9, 
            "product_rows": 3, 
            "slug": "hp", 
            "name": "HP", 
            "level": 1, 
            "products": [], 
            "product_cols": 3, 
            "popular": false, 
            "position": 1000, 
            "display": true, 
            "category_cols": 3
        }
    }, 
    {
        "pk": 15, 
        "model": "catalog.category", 
        "fields": {
            "rght": 9, 
            "meta_keywords": "", 
            "uid": "", 
            "image": "", 
            "lft": 8, 
            "top_position": null, 
            "active_formats": false, 
            "static_block": null, 
            "exclude_from_navigation": false, 
            "template": null, 
            "tree_id": 2, 
            "short_description": "", 
            "meta_description": "", 
            "meta_title": "<name>", 
            "show_all_products": true, 
            "description": "", 
            "parent": 9, 
            "product_rows": 3, 
            "slug": "toshiba", 
            "name": "Toshiba", 
            "level": 1, 
            "products": [], 
            "product_cols": 3, 
            "popular": false, 
            "position": 1000, 
            "display": true, 
            "category_cols": 3
        }
    }, 
    {
        "pk": 16, 
        "model": "catalog.category", 
        "fields": {
            "rght": 11, 
            "meta_keywords": "", 
            "uid": "", 
            "image": "", 
            "lft": 10, 
            "top_position": null, 
            "active_formats": false, 
            "static_block": null, 
            "exclude_from_navigation": false, 
            "template": null, 
            "tree_id": 2, 
            "short_description": "", 
            "meta_description": "", 
            "meta_title": "<name>", 
            "show_all_products": true, 
            "description": "", 
            "parent": 9, 
            "product_rows": 3, 
            "slug": "acer", 
            "name": "Acer", 
            "level": 1, 
            "products": [], 
            "product_cols": 3, 
            "popular": false, 
            "position": 1000, 
            "display": true, 
            "category_cols": 3
        }
    }, 
    {
        "pk": 10, 
        "model": "catalog.category", 
        "fields": {
            "rght": 10, 
            "meta_keywords": "", 
            "uid": "", 
            "image": "", 
            "lft": 1, 
            "top_position": null, 
            "active_formats": false, 
            "static_block": null, 
            "exclude_from_navigation": false, 
            "template": null, 
            "tree_id": 3, 
            "short_description": "", 
            "meta_description": "", 
            "meta_title": "<name>", 
            "show_all_products": true, 
            "description": "", 
            "parent": null, 
            "product_rows": 3, 
            "slug": "foto-tehnika", 
            "name": "\u0424\u043e\u0442\u043e \u0442\u0435\u0445\u043d\u0438\u043a\u0430", 
            "level": 0, 
            "products": [], 
            "product_cols": 3, 
            "popular": false, 
            "position": 1000, 
            "display": true, 
            "category_cols": 3
        }
    }, 
    {
        "pk": 17, 
        "model": "catalog.category", 
        "fields": {
            "rght": 3, 
            "meta_keywords": "", 
            "uid": "", 
            "image": "", 
            "lft": 2, 
            "top_position": null, 
            "active_formats": false, 
            "static_block": null, 
            "exclude_from_navigation": false, 
            "template": null, 
            "tree_id": 3, 
            "short_description": "", 
            "meta_description": "", 
            "meta_title": "<name>", 
            "show_all_products": true, 
            "description": "", 
            "parent": 10, 
            "product_rows": 3, 
            "slug": "photo-sony", 
            "name": "Sony", 
            "level": 1, 
            "products": [], 
            "product_cols": 3, 
            "popular": false, 
            "position": 1000, 
            "display": true, 
            "category_cols": 3
        }
    }, 
    {
        "pk": 18, 
        "model": "catalog.category", 
        "fields": {
            "rght": 5, 
            "meta_keywords": "", 
            "uid": "", 
            "image": "", 
            "lft": 4, 
            "top_position": null, 
            "active_formats": false, 
            "static_block": null, 
            "exclude_from_navigation": false, 
            "template": null, 
            "tree_id": 3, 
            "short_description": "", 
            "meta_description": "", 
            "meta_title": "<name>", 
            "show_all_products": true, 
            "description": "", 
            "parent": 10, 
            "product_rows": 3, 
            "slug": "photo-hp", 
            "name": "HP", 
            "level": 1, 
            "products": [], 
            "product_cols": 3, 
            "popular": false, 
            "position": 1000, 
            "display": true, 
            "category_cols": 3
        }
    }, 
    {
        "pk": 19, 
        "model": "catalog.category", 
        "fields": {
            "rght": 7, 
            "meta_keywords": "", 
            "uid": "", 
            "image": "", 
            "lft": 6, 
            "top_position": null, 
            "active_formats": false, 
            "static_block": null, 
            "exclude_from_navigation": false, 
            "template": null, 
            "tree_id": 3, 
            "short_description": "", 
            "meta_description": "", 
            "meta_title": "<name>", 
            "show_all_products": true, 
            "description": "", 
            "parent": 10, 
            "product_rows": 3, 
            "slug": "photo-toshiba", 
            "name": "Toshiba", 
            "level": 1, 
            "products": [], 
            "product_cols": 3, 
            "popular": false, 
            "position": 1000, 
            "display": true, 
            "category_cols": 3
        }
    }, 
    {
        "pk": 20, 
        "model": "catalog.category", 
        "fields": {
            "rght": 9, 
            "meta_keywords": "", 
            "uid": "", 
            "image": "", 
            "lft": 8, 
            "top_position": null, 
            "active_formats": false, 
            "static_block": null, 
            "exclude_from_navigation": false, 
            "template": null, 
            "tree_id": 3, 
            "short_description": "", 
            "meta_description": "", 
            "meta_title": "<name>", 
            "show_all_products": true, 
            "description": "", 
            "parent": 10, 
            "product_rows": 3, 
            "slug": "photo-acer", 
            "name": "Acer", 
            "level": 1, 
            "products": [], 
            "product_cols": 3, 
            "popular": false, 
            "position": 1000, 
            "display": true, 
            "category_cols": 3
        }
    }, 
    {
        "pk": 11, 
        "model": "catalog.category", 
        "fields": {
            "rght": 10, 
            "meta_keywords": "", 
            "uid": "", 
            "image": "", 
            "lft": 1, 
            "top_position": null, 
            "active_formats": false, 
            "static_block": null, 
            "exclude_from_navigation": false, 
            "template": null, 
            "tree_id": 4, 
            "short_description": "", 
            "meta_description": "", 
            "meta_title": "<name>", 
            "show_all_products": true, 
            "description": "", 
            "parent": null, 
            "product_rows": 3, 
            "slug": "aksessuary", 
            "name": "\u0410\u043a\u0441\u0435\u0441\u0441\u0443\u0430\u0440\u044b", 
            "level": 0, 
            "products": [], 
            "product_cols": 3, 
            "popular": false, 
            "position": 1000, 
            "display": true, 
            "category_cols": 3
        }
    }, 
    {
        "pk": 21, 
        "model": "catalog.category", 
        "fields": {
            "rght": 3, 
            "meta_keywords": "", 
            "uid": "", 
            "image": "", 
            "lft": 2, 
            "top_position": null, 
            "active_formats": false, 
            "static_block": null, 
            "exclude_from_navigation": false, 
            "template": null, 
            "tree_id": 4, 
            "short_description": "", 
            "meta_description": "", 
            "meta_title": "<name>", 
            "show_all_products": true, 
            "description": "", 
            "parent": 11, 
            "product_rows": 3, 
            "slug": "aksessuary-sony", 
            "name": "Sony", 
            "level": 1, 
            "products": [], 
            "product_cols": 3, 
            "popular": false, 
            "position": 1000, 
            "display": true, 
            "category_cols": 3
        }
    }, 
    {
        "pk": 22, 
        "model": "catalog.category", 
        "fields": {
            "rght": 5, 
            "meta_keywords": "", 
            "uid": "", 
            "image": "", 
            "lft": 4, 
            "top_position": null, 
            "active_formats": false, 
            "static_block": null, 
            "exclude_from_navigation": false, 
            "template": null, 
            "tree_id": 4, 
            "short_description": "", 
            "meta_description": "", 
            "meta_title": "<name>", 
            "show_all_products": true, 
            "description": "", 
            "parent": 11, 
            "product_rows": 3, 
            "slug": "aksessuary-hp", 
            "name": "HP", 
            "level": 1, 
            "products": [], 
            "product_cols": 3, 
            "popular": false, 
            "position": 1000, 
            "display": true, 
            "category_cols": 3
        }
    }, 
    {
        "pk": 23, 
        "model": "catalog.category", 
        "fields": {
            "rght": 7, 
            "meta_keywords": "", 
            "uid": "", 
            "image": "", 
            "lft": 6, 
            "top_position": null, 
            "active_formats": false, 
            "static_block": null, 
            "exclude_from_navigation": false, 
            "template": null, 
            "tree_id": 4, 
            "short_description": "", 
            "meta_description": "", 
            "meta_title": "<name>", 
            "show_all_products": true, 
            "description": "", 
            "parent": 11, 
            "product_rows": 3, 
            "slug": "aksessuary-toshiba", 
            "name": "Toshiba", 
            "level": 1, 
            "products": [], 
            "product_cols": 3, 
            "popular": false, 
            "position": 1000, 
            "display": true, 
            "category_cols": 3
        }
    }, 
    {
        "pk": 24, 
        "model": "catalog.category", 
        "fields": {
            "rght": 9, 
            "meta_keywords": "", 
            "uid": "", 
            "image": "", 
            "lft": 8, 
            "top_position": null, 
            "active_formats": false, 
            "static_block": null, 
            "exclude_from_navigation": false, 
            "template": null, 
            "tree_id": 4, 
            "short_description": "", 
            "meta_description": "", 
            "meta_title": "<name>", 
            "show_all_products": true, 
            "description": "", 
            "parent": 11, 
            "product_rows": 3, 
            "slug": "aksessuary-acer", 
            "name": "Acer", 
            "level": 1, 
            "products": [], 
            "product_cols": 3, 
            "popular": false, 
            "position": 1000, 
            "display": true, 
            "category_cols": 3
        }
    }
]