[
    {
        "pk": 1, 
        "model": "page.actiongroup", 
        "fields": {
            "name": "Main_menu"
        }
    }, 
    {
        "pk": 2, 
        "model": "page.actiongroup", 
        "fields": {
            "name": "my_account"
        }
    }, 
    {
        "pk": 2, 
        "model": "page.action", 
        "fields": {
            "rght": 2, 
            "group": 1, 
            "parent": null, 
            "title": "\u041e \u043a\u043e\u043c\u043f\u0430\u043d\u0438\u0438", 
            "level": 0, 
            "lft": 1, 
            "link": "/page/o-kompanii", 
            "tree_id": 1, 
            "active": true, 
            "position": 998, 
            "page": 1
        }
    }, 
    {
        "pk": 5, 
        "model": "page.action", 
        "fields": {
            "rght": 10, 
            "group": 2, 
            "parent": null, 
            "title": "\u041b\u0438\u0447\u043d\u044b\u0439 \u043a\u0430\u0431\u0438\u043d\u0435\u0442", 
            "level": 0, 
            "lft": 1, 
            "link": "reverse__[\"ecko_my_account\", [], {}]", 
            "tree_id": 2, 
            "active": true, 
            "position": 999, 
            "page": null
        }
    }, 
    {
        "pk": 6, 
        "model": "page.action", 
        "fields": {
            "rght": 3, 
            "group": 2, 
            "parent": 5, 
            "title": "\u041c\u043e\u0438 \u0437\u0430\u043a\u0430\u0437\u044b", 
            "level": 1, 
            "lft": 2, 
            "link": "reverse__[\"ecko_my_orders\", [], {}]", 
            "tree_id": 2, 
            "active": true, 
            "position": 999, 
            "page": null
        }
    }, 
    {
        "pk": 7, 
        "model": "page.action", 
        "fields": {
            "rght": 5, 
            "group": 2, 
            "parent": 5, 
            "title": "\u0418\u0437\u043c\u0435\u043d\u0438\u0442\u044c \u043f\u0430\u0440\u043e\u043b\u044c", 
            "level": 1, 
            "lft": 4, 
            "link": "reverse__[\"password_change\", [], {}] ", 
            "tree_id": 2, 
            "active": true, 
            "position": 999, 
            "page": null
        }
    }, 
    {
        "pk": 8, 
        "model": "page.action", 
        "fields": {
            "rght": 7, 
            "group": 2, 
            "parent": 5, 
            "title": "\u0418\u0437\u043c\u0435\u043d\u0438\u0442\u044c \u0430\u0434\u0440\u0435\u0441", 
            "level": 1, 
            "lft": 6, 
            "link": "reverse__[\"ecko_my_addresses\", [], {}]", 
            "tree_id": 2, 
            "active": true, 
            "position": 999, 
            "page": null
        }
    }, 
    {
        "pk": 9, 
        "model": "page.action", 
        "fields": {
            "rght": 9, 
            "group": 2, 
            "parent": 5, 
            "title": "\u0418\u0437\u043c\u0435\u043d\u0438\u0442\u044c email", 
            "level": 1, 
            "lft": 8, 
            "link": "reverse__[\"ecko_my_email\", [], {}]", 
            "tree_id": 2, 
            "active": true, 
            "position": 999, 
            "page": null
        }
    }, 
    {
        "pk": 1, 
        "model": "page.action", 
        "fields": {
            "rght": 2, 
            "group": 1, 
            "parent": null, 
            "title": "\u0410\u0434\u0440\u0435\u0441\u0430 \u043c\u0430\u0433\u0430\u0437\u0438\u043d\u043e\u0432", 
            "level": 0, 
            "lft": 1, 
            "link": "reverse__[\"shops_addresses\", [], {}]", 
            "tree_id": 3, 
            "active": true, 
            "position": 999, 
            "page": null
        }
    }, 
    {
        "pk": 3, 
        "model": "page.action", 
        "fields": {
            "rght": 2, 
            "group": 1, 
            "parent": null, 
            "title": "\u041e\u043f\u043b\u0430\u0442\u0430 \u0438 \u0434\u043e\u0441\u0442\u0430\u0432\u043a\u0430", 
            "level": 0, 
            "lft": 1, 
            "link": "/page/oplata-i-dostavka", 
            "tree_id": 4, 
            "active": true, 
            "position": 999, 
            "page": 2
        }
    }, 
    {
        "pk": 4, 
        "model": "page.action", 
        "fields": {
            "rght": 2, 
            "group": 1, 
            "parent": null, 
            "title": "\u041a\u043e\u043d\u0442\u0430\u043a\u0442\u044b", 
            "level": 0, 
            "lft": 1, 
            "link": "/page/kontakty", 
            "tree_id": 5, 
            "active": true, 
            "position": 999, 
            "page": 3
        }
    }, 
    {
        "pk": 1, 
        "model": "page.page", 
        "fields": {
            "body": "", 
            "exclude_from_navigation": false, 
            "title": "\u041e \u043a\u043e\u043c\u043f\u0430\u043d\u0438\u0438", 
            "file": "", 
            "active": true, 
            "position": 999, 
            "short_text": "", 
            "slug": "o-kompanii"
        }
    }, 
    {
        "pk": 2, 
        "model": "page.page", 
        "fields": {
            "body": "", 
            "exclude_from_navigation": false, 
            "title": "\u041e\u043f\u043b\u0430\u0442\u0430 \u0438 \u0434\u043e\u0441\u0442\u0430\u0432\u043a\u0430", 
            "file": "", 
            "active": true, 
            "position": 999, 
            "short_text": "", 
            "slug": "oplata-i-dostavka"
        }
    }, 
    {
        "pk": 3, 
        "model": "page.page", 
        "fields": {
            "body": "", 
            "exclude_from_navigation": false, 
            "title": "\u041a\u043e\u043d\u0442\u0430\u043a\u0442\u044b", 
            "file": "", 
            "active": true, 
            "position": 999, 
            "short_text": "", 
            "slug": "kontakty"
        }
    }
]