[
    {
        "pk": 1, 
        "model": "core.shop", 
        "fields": {
            "static_block": null, 
            "google_analytics_id": "", 
            "description": "", 
            "ga_ecommerce_tracking": false, 
            "image": "", 
            "from_email": "beholderrk@gmail.com", 
            "active": true, 
            "confirm_toc": false, 
            "user": null, 
            "notification_emails": "beholderrk@gmail.com", 
            "shop_owner": "", 
            "default_currency": "RUR", 
            "ga_site_tracking": false, 
            "name": "Apple in Russia"
        }
    }
]